{
    "id": 3,
    "vendor": "Suzuki",
    "name": "V-Strom 1000",
    "images": [
        "3387.jpg"
    ],
    "characteristics": {
        "Ходовая часть / тормоза": {
            "Подвеска": {
                "Тип передней подвески": "Перевернутая телескопическая вилка, полностью настраиваемая",
                "Тип задней подвески": "Маятниковая с одним моноамортизатором, полностью настраиваемая"
            }
        }
    }
}